<?xml version="1.0" encoding="utf-8"?>
<!-- Generator: Adobe Illustrator 19.2.1, SVG Export Plug-In . SVG Version: 6.00 Build 0)  -->
<svg version="1.1" id="Слой_1" xmlns="http://www.w3.org/2000/svg" xmlns:xlink="http://www.w3.org/1999/xlink" x="0px" y="0px"
	 viewBox="0 0 24.2 24.2" style="enable-background:new 0 0 24.2 24.2;" xml:space="preserve">
<style type="text/css">
	.st0{fill:#5CF2E8;}
</style>
<g>
	<path class="st0" d="M12.1,17.6c-3,0-5.5-2.5-5.5-5.5c0-3,2.5-5.5,5.5-5.5c3,0,5.5,2.5,5.5,5.5C17.6,15.1,15.1,17.6,12.1,17.6z
		 M12.1,8.8c-1.8,0-3.3,1.5-3.3,3.3c0,1.8,1.5,3.3,3.3,3.3c1.8,0,3.3-1.5,3.3-3.3C15.4,10.3,13.9,8.8,12.1,8.8z"/>
	<path class="st0" d="M12.1,24c-6.6,0-12-5.4-12-12c0-3.2,1.2-6.2,3.5-8.5C5.9,1.2,8.9,0,12.1,0c6.6,0,12,5.4,12,12v1.1
		c0,2.4-2,4.4-4.4,4.4s-4.4-2-4.4-4.4V12c0-0.6,0.5-1.1,1.1-1.1s1.1,0.5,1.1,1.1v1.1c0,1.2,1,2.2,2.2,2.2s2.2-1,2.2-2.2V12
		c0-5.4-4.4-9.8-9.8-9.8c-2.6,0-5.1,1-6.9,2.9C3.3,6.9,2.3,9.4,2.3,12c0,5.4,4.4,9.8,9.8,9.8c2.1,0,4.3-0.7,6-2
		c0.5-0.4,1.2-0.3,1.5,0.2c0.4,0.5,0.3,1.2-0.2,1.5C17.3,23.1,14.7,24,12.1,24z"/>
</g>
</svg>
